Shiny Application to Compare Covid Progression in 5 ASEAN Countries
…
library(covidasean)

This package contains shiny dashboard for comparing covid-19 outbreak in 5 ASEAN countries represented by Indonesia, Malaysia, Singapore, Philippines and Thailand. The data source is retrieved from tidycovid R package by Joachim Gassen and its period ranged from 2020-03-28 until 2020-10-09.

It also displays people’s mobility trend in these countries (originally sourced from (Google’s Mobility report)[https://www.google.com/covid19/mobility/]) which covers mobility in workstations, parks, groceries, stations, recreations and residentials.

Accessing dataset

We can access the dataset to self explore it via:

library(covidasean)
library(tibble)
covid_asean_df
#> # A tibble: 203 x 53
#>    iso3c country date       confirmed deaths recovered ecdc_cases ecdc_deaths
#>    <chr> <chr>   <date>         <dbl>  <dbl>     <dbl>      <dbl>       <dbl>
#>  1 IDN   Indone~ 2020-03-28      1155    102        59       1046          87
#>  2 IDN   Indone~ 2020-04-02      1790    170       112       1677         157
#>  3 IDN   Indone~ 2020-04-07      2738    221       204       2491         209
#>  4 IDN   Indone~ 2020-04-12      4241    373       359       3842         327
#>  5 IDN   Indone~ 2020-04-17      5923    520       607       5516         496
#>  6 IDN   Indone~ 2020-04-22      7418    635       913       7135         616
#>  7 IDN   Indone~ 2020-04-27      9096    765      1151       8882         743
#>  8 IDN   Indone~ 2020-05-02     10843    831      1665      10551         800
#>  9 IDN   Indone~ 2020-05-07     12776    930      2381      12438         895
#> 10 IDN   Indone~ 2020-05-12     14749   1007      3063      14265         991
#> # ... with 193 more rows, and 45 more variables: total_tests <dbl>,
#> #   tests_units <chr>, soc_dist <dbl>, mov_rest <dbl>, pub_health <dbl>,
#> #   gov_soc_econ <dbl>, lockdown <dbl>, apple_mtr_driving <dbl>,
#> #   apple_mtr_walking <dbl>, apple_mtr_transit <dbl>,
#> #   gcmr_retail_recreation <dbl>, gcmr_grocery_pharmacy <dbl>,
#> #   gcmr_parks <dbl>, gcmr_transit_stations <dbl>, gcmr_workplaces <dbl>,
#> #   gcmr_residential <dbl>, gtrends_score <dbl>, gtrends_country_score <int>,
#> #   region <chr>, income <chr>, population <dbl>, land_area_skm <dbl>,
#> #   pop_density <dbl>, pop_largest_city <dbl>, life_expectancy <dbl>,
…
