Shiny Application to Compare Covid Progression in 5 ASEAN Countries • covidasean
…
It also displays people’s mobility trend in these countries (originally sourced from Google’s Mobility report which covers mobility in workstations, parks, groceries, stations, recreations and residentials.

How to install covidasean package?

devtools::install_github("etc5523-2020/r-package-assessment-dedi0003", subdir = "covidasean")

Accessing dataset

We can access the dataset to self explore it via:

library(covidasean)
library(tibble)
covid_asean_df
#> # A tibble: 221 x 53
#>    iso3c country date       confirmed deaths recovered ecdc_cases ecdc_deaths
#>    <chr> <chr>   <date>         <dbl>  <dbl>     <dbl>      <dbl>       <dbl>
#>  1 IDN   Indone~ 2020-03-30      1414    122        75       1285         114
#>  2 IDN   Indone~ 2020-04-04      2092    191       150       1986         181
#>  3 IDN   Indone~ 2020-04-09      3293    280       252       2956         240
#>  4 IDN   Indone~ 2020-04-14      4839    459       426       4557         399
#>  5 IDN   Indone~ 2020-04-19      6575    582       686       6248         535
#>  6 IDN   Indone~ 2020-04-24      8211    689      1002       7775         647
#>  7 IDN   Indone~ 2020-04-29      9771    784      1391       9511         773
#>  8 IDN   Indone~ 2020-05-04     11587    864      1954      11192         845
#>  9 IDN   Indone~ 2020-05-09     13645    959      2607      13112         943
#> 10 IDN   Indone~ 2020-05-14     16006   1043      3518      15438        1028
#> # ... with 211 more rows, and 45 more variables: total_tests <dbl>,
#> #   tests_units <chr>, soc_dist <dbl>, mov_rest <dbl>, pub_health <dbl>,
#> #   gov_soc_econ <dbl>, lockdown <dbl>, apple_mtr_driving <dbl>,
#> #   apple_mtr_walking <dbl>, apple_mtr_transit <dbl>,
#> #   gcmr_retail_recreation <dbl>, gcmr_grocery_pharmacy <dbl>,
#> #   gcmr_parks <dbl>, gcmr_transit_stations <dbl>, gcmr_workplaces <dbl>,
#> #   gcmr_residential <dbl>, gtrends_score <dbl>, gtrends_country_score <int>,
#> #   region <chr>, income <chr>, population <dbl>, land_area_skm <dbl>,
#> #   pop_density <dbl>, pop_largest_city <dbl>, life_expectancy <dbl>,
…
